^C:\USERS\USER\SOURCE\REPOS\SKILLBOX_PRACTICE15\X64\DEBUG\SKILLBOX_PRACTICE15.OBJ
C:\USERS\USER\SOURCE\REPOS\SKILLBOX_PRACTICE15\X64\DEBUG\SKILLBOX_PRACTICE15.EXE
C:\USERS\USER\SOURCE\REPOS\SKILLBOX_PRACTICE15\X64\DEBUG\SKILLBOX_PRACTICE15.ILK
C:\USERS\USER\SOURCE\REPOS\SKILLBOX_PRACTICE15\X64\DEBUG\SKILLBOX_PRACTICE15.PDB
